92|add|11 + 31 + 20|62
93|subtract|11 - 31 - 20|-40
94|multiply|2 * 3 * 4|24
95|divide|100 / 2 / 5|10
96|power|2 ^ 3|8
97|add|2 + 3 + 5|10
98|subtract|10 - 1 - 4|5
101|power|5 ^ 4|625
102|add|5 + 4|9
103|multiply|2 * 1 * 4|8
